src/simulation.log
# vsim -vopt work.top -voptargs="+acc=npr" -assertdebug -l simulation.log -coverage -wlf waves.wlf -c -do "log -r /*; add wave -r /*; run -all;      coverage save -onexit -assert -directive -cvg -codeAll coverage.ucdb; exit" 
# Start time: 12:38:11 on Dec 08,2025
# ** Note: (vsim-3812) Design is being optimized...
# ** Note: (vopt-143) Recognized 1 FSM in module "apb_master(fast)".
# ** Warning: APB_sequence.sv(47): (vopt-2240) Treating stand-alone use of function 'randomize' as an implicit VOID cast.
# ** Warning: APB_sequence.sv(61): (vopt-2240) Treating stand-alone use of function 'randomize' as an implicit VOID cast.
# ** Warning: APB_sequence.sv(76): (vopt-2240) Treating stand-alone use of function 'randomize' as an implicit VOID cast.
# ** Warning: APB_sequence.sv(92): (vopt-2240) Treating stand-alone use of function 'randomize' as an implicit VOID cast.
# ** Warning: APB_sequence.sv(106): (vopt-2240) Treating stand-alone use of function 'randomize' as an implicit VOID cast.
# ** Warning: APB_sequence.sv(122): (vopt-2240) Treating stand-alone use of function 'randomize' as an implicit VOID cast.
# ** Warning: APB_sequence.sv(125): (vopt-2240) Treating stand-alone use of function 'randomize' as an implicit VOID cast.
# ** Warning: APB_sequence.sv(128): (vopt-2240) Treating stand-alone use of function 'randomize' as an implicit VOID cast.
# ** Warning: APB_sequence.sv(141): (vopt-2240) Treating stand-alone use of function 'randomize' as an implicit VOID cast.
# ** Warning: APB_sequence.sv(159): (vopt-2240) Treating stand-alone use of function 'randomize' as an implicit VOID cast.
# ** Warning: APB_sequence.sv(177): (vopt-2240) Treating stand-alone use of function 'randomize' as an implicit VOID cast.
# ** Warning: APB_sequence.sv(190): (vopt-2240) Treating stand-alone use of function 'randomize' as an implicit VOID cast.
# ** Warning: APB_driver.sv(81): (vopt-2240) Treating stand-alone use of function 'randomize' as an implicit VOID cast.
# //  Questa Sim
# //  Version 10.6c linux Jul 25 2017
# //
# //  Copyright 1991-2017 Mentor Graphics Corporation
# //  All Rights Reserved.
# //
# //  QuestaSim and its associated documentation contain trade
# //  secrets and commercial or financial information that are the property of
# //  Mentor Graphics Corporation and are privileged, confidential,
# //  and exempt from disclosure under the Freedom of Information Act,
# //  5 U.S.C. Section 552. Furthermore, this information
# //  is prohibited from disclosure under the Trade Secrets Act,
# //  18 U.S.C. Section 1905.
# //
# Loading sv_std.std
# Loading work.apb_if(fast)
# Loading work.uvm_pkg(fast)
# Loading work.apb_pkg(fast)
# ** Note: (vsim-8785) UVM-aware debugging capabilities will be disabled since no compiled "questa_uvm_pkg" can be found.
# This also means that later if you turn on UVM-aware debugging your debug simulations may have
# different random seeds from your non-debug simulations.
# Loading work.top(fast)
# Loading work.apb_if(fast)
# Loading work.apb_master(fast)
# Loading work.apb_master_assertions(fast)
# log -r /*
#  add wave -r /*
#  run -all
# ----------------------------------------------------------------
# UVM-1.1d
# (C) 2007-2013 Mentor Graphics Corporation
# (C) 2007-2013 Cadence Design Systems, Inc.
# (C) 2006-2013 Synopsys, Inc.
# (C) 2011-2013 Cypress Semiconductor Corp.
# ----------------------------------------------------------------
# 
#   ***********       IMPORTANT RELEASE NOTES         ************
# 
#   You are using a version of the UVM library that has been compiled
#   with `UVM_NO_DEPRECATED undefined.
#   See http://www.eda.org/svdb/view.php?id=3313 for more details.
# 
#   You are using a version of the UVM library that has been compiled
#   with `UVM_OBJECT_MUST_HAVE_CONSTRUCTOR undefined.
#   See http://www.eda.org/svdb/view.php?id=3770 for more details.
# 
#       (Specify +UVM_NO_RELNOTES to turn off this notice)
# 
# UVM_INFO @ 0: reporter [RNTST] Running test apb_regression_test...
# UVM_INFO APB_test.sv(72) @ 0: uvm_test_top [
# 
#  *** REG] Running TC1 *** 
# 
# UVM_INFO APB_scoreboard.sv(61) @ 35: uvm_test_top.env.scb [SCB_IN] Input: Addr=0x0,  READ, Data=0x0, PSTRB=0x0, transfer=0, transfer_done=0
# UVM_INFO APB_scoreboard.sv(61) @ 45: uvm_test_top.env.scb [SCB_IN] Input: Addr=0x0,  READ, Data=0x0, PSTRB=0x0, transfer=0, transfer_done=0
# UVM_INFO APB_scoreboard.sv(61) @ 55: uvm_test_top.env.scb [SCB_IN] Input: Addr=0xd8,  READ, Data=0xa, PSTRB=0x4, transfer=0, transfer_done=0
# UVM_INFO APB_scoreboard.sv(61) @ 65: uvm_test_top.env.scb [SCB_IN] Input: Addr=0xd8,  READ, Data=0xa, PSTRB=0x4, transfer=0, transfer_done=0
# UVM_INFO APB_scoreboard.sv(61) @ 75: uvm_test_top.env.scb [SCB_IN] Input: Addr=0xd8,  READ, Data=0xa, PSTRB=0x4, transfer=0, transfer_done=0
# UVM_INFO APB_scoreboard.sv(61) @ 85: uvm_test_top.env.scb [SCB_IN] Input: Addr=0xd8,  READ, Data=0xa, PSTRB=0x4, transfer=0, transfer_done=0
# UVM_INFO APB_scoreboard.sv(61) @ 95: uvm_test_top.env.scb [SCB_IN] Input: Addr=0xd8,  READ, Data=0xa, PSTRB=0x4, transfer=0, transfer_done=0
# UVM_INFO APB_scoreboard.sv(61) @ 105: uvm_test_top.env.scb [SCB_IN] Input: Addr=0x6c, WRITE, Data=0x7561fab5, PSTRB=0xb, transfer=0, transfer_done=0
# UVM_INFO APB_scoreboard.sv(61) @ 115: uvm_test_top.env.scb [SCB_IN] Input: Addr=0x6c, WRITE, Data=0x7561fab5, PSTRB=0xb, transfer=0, transfer_done=0
# UVM_INFO APB_scoreboard.sv(61) @ 125: uvm_test_top.env.scb [SCB_IN] Input: Addr=0x6c, WRITE, Data=0x7561fab5, PSTRB=0xb, transfer=0, transfer_done=0
# UVM_INFO APB_scoreboard.sv(61) @ 135: uvm_test_top.env.scb [SCB_IN] Input: Addr=0x6c, WRITE, Data=0x7561fab5, PSTRB=0xb, transfer=0, transfer_done=0
# UVM_INFO APB_scoreboard.sv(61) @ 145: uvm_test_top.env.scb [SCB_IN] Input: Addr=0x6c, WRITE, Data=0x7561fab5, PSTRB=0xb, transfer=0, transfer_done=0
# UVM_INFO APB_scoreboard.sv(61) @ 155: uvm_test_top.env.scb [SCB_IN] Input: Addr=0x6c, WRITE, Data=0x7561fab5, PSTRB=0xb, transfer=0, transfer_done=0
# UVM_INFO APB_scoreboard.sv(61) @ 165: uvm_test_top.env.scb [SCB_IN] Input: Addr=0x61, WRITE, Data=0x1e270a93, PSTRB=0x6, transfer=0, transfer_done=0
# UVM_INFO APB_scoreboard.sv(61) @ 175: uvm_test_top.env.scb [SCB_IN] Input: Addr=0x61, WRITE, Data=0x1e270a93, PSTRB=0x6, transfer=0, transfer_done=0
# UVM_INFO APB_scoreboard.sv(61) @ 185: uvm_test_top.env.scb [SCB_IN] Input: Addr=0x61, WRITE, Data=0x1e270a93, PSTRB=0x6, transfer=0, transfer_done=0
# UVM_INFO APB_scoreboard.sv(61) @ 195: uvm_test_top.env.scb [SCB_IN] Input: Addr=0x61, WRITE, Data=0x1e270a93, PSTRB=0x6, transfer=0, transfer_done=0
# UVM_INFO APB_scoreboard.sv(61) @ 205: uvm_test_top.env.scb [SCB_IN] Input: Addr=0x61, WRITE, Data=0x1e270a93, PSTRB=0x6, transfer=0, transfer_done=0
# UVM_INFO APB_scoreboard.sv(61) @ 215: uvm_test_top.env.scb [SCB_IN] Input: Addr=0x61, WRITE, Data=0x1e270a93, PSTRB=0x6, transfer=0, transfer_done=0
# UVM_INFO APB_scoreboard.sv(61) @ 225: uvm_test_top.env.scb [SCB_IN] Input: Addr=0x55, WRITE, Data=0x65576729, PSTRB=0x7, transfer=0, transfer_done=0
# UVM_INFO APB_scoreboard.sv(61) @ 235: uvm_test_top.env.scb [SCB_IN] Input: Addr=0x55, WRITE, Data=0x65576729, PSTRB=0x7, transfer=0, transfer_done=0
# UVM_INFO APB_scoreboard.sv(61) @ 245: uvm_test_top.env.scb [SCB_IN] Input: Addr=0x55, WRITE, Data=0x65576729, PSTRB=0x7, transfer=0, transfer_done=0
# UVM_INFO APB_scoreboard.sv(61) @ 255: uvm_test_top.env.scb [SCB_IN] Input: Addr=0x55, WRITE, Data=0x65576729, PSTRB=0x7, transfer=0, transfer_done=0
# UVM_INFO APB_scoreboard.sv(61) @ 265: uvm_test_top.env.scb [SCB_IN] Input: Addr=0x55, WRITE, Data=0x65576729, PSTRB=0x7, transfer=0, transfer_done=0
# UVM_INFO APB_scoreboard.sv(61) @ 275: uvm_test_top.env.scb [SCB_IN] Input: Addr=0x46, WRITE, Data=0x8da21640, PSTRB=0x6, transfer=0, transfer_done=0
# UVM_INFO APB_scoreboard.sv(61) @ 285: uvm_test_top.env.scb [SCB_IN] Input: Addr=0x46, WRITE, Data=0x8da21640, PSTRB=0x6, transfer=0, transfer_done=0
# UVM_INFO APB_scoreboard.sv(61) @ 295: uvm_test_top.env.scb [SCB_IN] Input: Addr=0x46, WRITE, Data=0x8da21640, PSTRB=0x6, transfer=0, transfer_done=0
# UVM_INFO APB_scoreboard.sv(61) @ 305: uvm_test_top.env.scb [SCB_IN] Input: Addr=0x46, WRITE, Data=0x8da21640, PSTRB=0x6, transfer=0, transfer_done=0
# UVM_INFO APB_scoreboard.sv(61) @ 315: uvm_test_top.env.scb [SCB_IN] Input: Addr=0x46, WRITE, Data=0x8da21640, PSTRB=0x6, transfer=0, transfer_done=0
# UVM_INFO APB_scoreboard.sv(61) @ 325: uvm_test_top.env.scb [SCB_IN] Input: Addr=0xa2, WRITE, Data=0x7fea58d6, PSTRB=0x8, transfer=0, transfer_done=0
# UVM_INFO APB_scoreboard.sv(61) @ 335: uvm_test_top.env.scb [SCB_IN] Input: Addr=0xa2, WRITE, Data=0x7fea58d6, PSTRB=0x8, transfer=0, transfer_done=0
# UVM_INFO APB_scoreboard.sv(61) @ 345: uvm_test_top.env.scb [SCB_IN] Input: Addr=0xa2, WRITE, Data=0x7fea58d6, PSTRB=0x8, transfer=0, transfer_done=0
# UVM_INFO APB_scoreboard.sv(61) @ 355: uvm_test_top.env.scb [SCB_IN] Input: Addr=0xa2, WRITE, Data=0x7fea58d6, PSTRB=0x8, transfer=0, transfer_done=0
# UVM_INFO APB_scoreboard.sv(61) @ 365: uvm_test_top.env.scb [SCB_IN] Input: Addr=0xa2, WRITE, Data=0x7fea58d6, PSTRB=0x8, transfer=0, transfer_done=0
# UVM_INFO APB_scoreboard.sv(61) @ 375: uvm_test_top.env.scb [SCB_IN] Input: Addr=0xa2, WRITE, Data=0x7fea58d6, PSTRB=0x8, transfer=0, transfer_done=0
# UVM_INFO APB_scoreboard.sv(61) @ 385: uvm_test_top.env.scb [SCB_IN] Input: Addr=0xe3,  READ, Data=0xa, PSTRB=0x4, transfer=0, transfer_done=0
# UVM_INFO APB_scoreboard.sv(61) @ 395: uvm_test_top.env.scb [SCB_IN] Input: Addr=0xe3,  READ, Data=0xa, PSTRB=0x4, transfer=0, transfer_done=0
# UVM_INFO APB_scoreboard.sv(61) @ 405: uvm_test_top.env.scb [SCB_IN] Input: Addr=0xe3,  READ, Data=0xa, PSTRB=0x4, transfer=0, transfer_done=0
# UVM_INFO APB_scoreboard.sv(61) @ 415: uvm_test_top.env.scb [SCB_IN] Input: Addr=0xe3,  READ, Data=0xa, PSTRB=0x4, transfer=0, transfer_done=0
# UVM_INFO APB_scoreboard.sv(61) @ 425: uvm_test_top.env.scb [SCB_IN] Input: Addr=0xe3,  READ, Data=0xa, PSTRB=0x4, transfer=0, transfer_done=0
# UVM_INFO APB_scoreboard.sv(61) @ 435: uvm_test_top.env.scb [SCB_IN] Input: Addr=0x6b,  READ, Data=0xa, PSTRB=0x1, transfer=0, transfer_done=0
# UVM_INFO APB_scoreboard.sv(61) @ 445: uvm_test_top.env.scb [SCB_IN] Input: Addr=0x6b,  READ, Data=0xa, PSTRB=0x1, transfer=0, transfer_done=0
# UVM_INFO APB_scoreboard.sv(61) @ 455: uvm_test_top.env.scb [SCB_IN] Input: Addr=0x6b,  READ, Data=0xa, PSTRB=0x1, transfer=0, transfer_done=0
# UVM_INFO APB_scoreboard.sv(61) @ 465: uvm_test_top.env.scb [SCB_IN] Input: Addr=0x6b,  READ, Data=0xa, PSTRB=0x1, transfer=0, transfer_done=0
# UVM_INFO APB_scoreboard.sv(61) @ 475: uvm_test_top.env.scb [SCB_IN] Input: Addr=0x6b,  READ, Data=0xa, PSTRB=0x1, transfer=0, transfer_done=0
# UVM_INFO APB_scoreboard.sv(61) @ 485: uvm_test_top.env.scb [SCB_IN] Input: Addr=0x6b,  READ, Data=0xa, PSTRB=0x1, transfer=0, transfer_done=0
# UVM_INFO APB_scoreboard.sv(61) @ 495: uvm_test_top.env.scb [SCB_IN] Input: Addr=0x6b,  READ, Data=0xa, PSTRB=0x1, transfer=0, transfer_done=0
# UVM_INFO APB_scoreboard.sv(61) @ 505: uvm_test_top.env.scb [SCB_IN] Input: Addr=0x6b,  READ, Data=0xa, PSTRB=0x1, transfer=0, transfer_done=0
# UVM_INFO APB_scoreboard.sv(61) @ 515: uvm_test_top.env.scb [SCB_IN] Input: Addr=0xfe,  READ, Data=0xa, PSTRB=0x8, transfer=0, transfer_done=0
# UVM_INFO APB_scoreboard.sv(61) @ 525: uvm_test_top.env.scb [SCB_IN] Input: Addr=0xfe,  READ, Data=0xa, PSTRB=0x8, transfer=0, transfer_done=0
# UVM_INFO APB_scoreboard.sv(61) @ 535: uvm_test_top.env.scb [SCB_IN] Input: Addr=0xfe,  READ, Data=0xa, PSTRB=0x8, transfer=0, transfer_done=0
# UVM_INFO APB_scoreboard.sv(61) @ 545: uvm_test_top.env.scb [SCB_IN] Input: Addr=0xfe,  READ, Data=0xa, PSTRB=0x8, transfer=0, transfer_done=0
# UVM_INFO APB_scoreboard.sv(61) @ 555: uvm_test_top.env.scb [SCB_IN] Input: Addr=0xfe,  READ, Data=0xa, PSTRB=0x8, transfer=0, transfer_done=0
# UVM_INFO APB_scoreboard.sv(61) @ 565: uvm_test_top.env.scb [SCB_IN] Input: Addr=0xfe,  READ, Data=0xa, PSTRB=0x8, transfer=0, transfer_done=0
# UVM_INFO APB_scoreboard.sv(61) @ 575: uvm_test_top.env.scb [SCB_IN] Input: Addr=0xd7,  READ, Data=0xa, PSTRB=0xd, transfer=0, transfer_done=0
# UVM_INFO APB_scoreboard.sv(61) @ 585: uvm_test_top.env.scb [SCB_IN] Input: Addr=0xd7,  READ, Data=0xa, PSTRB=0xd, transfer=0, transfer_done=0
# UVM_INFO APB_scoreboard.sv(61) @ 595: uvm_test_top.env.scb [SCB_IN] Input: Addr=0xd7,  READ, Data=0xa, PSTRB=0xd, transfer=0, transfer_done=0
# UVM_INFO APB_scoreboard.sv(61) @ 605: uvm_test_top.env.scb [SCB_IN] Input: Addr=0xd7,  READ, Data=0xa, PSTRB=0xd, transfer=0, transfer_done=0
# UVM_INFO APB_scoreboard.sv(61) @ 615: uvm_test_top.env.scb [SCB_IN] Input: Addr=0xd7,  READ, Data=0xa, PSTRB=0xd, transfer=0, transfer_done=0
# UVM_INFO APB_test.sv(75) @ 615: uvm_test_top [
# 
#  *** REG] Running TC2 *** 
# 
# UVM_INFO APB_scoreboard.sv(61) @ 625: uvm_test_top.env.scb [SCB_IN] Input: Addr=0xd7,  READ, Data=0xa, PSTRB=0xd, transfer=0, transfer_done=0
# UVM_INFO APB_scoreboard.sv(61) @ 635: uvm_test_top.env.scb [SCB_IN] Input: Addr=0x43, WRITE, Data=0xad364f16, PSTRB=0x3, transfer=1, transfer_done=0
# UVM_INFO APB_scoreboard.sv(123) @ 635: uvm_test_top.env.scb [SCB_OUT] Output: Addr=0x0, PSEL=0, PENABLE=0, PREADY=0, PWRITE=0
# UVM_INFO APB_scoreboard.sv(123) @ 645: uvm_test_top.env.scb [SCB_OUT] Output: Addr=0x43, PSEL=1, PENABLE=0, PREADY=0, PWRITE=1
# UVM_INFO APB_scoreboard.sv(61) @ 645: uvm_test_top.env.scb [SCB_IN] Input: Addr=0x43, WRITE, Data=0xad364f16, PSTRB=0x3, transfer=1, transfer_done=0
# ** Error: Protocol Error: PSEL didn't assert after Transfer at time 645
#    Time: 645 ns Started: 635 ns  Scope: top.duv.all_inst File: apb_protocol_checker.sv Line: 14 Expr: vif.PSEL
# UVM_INFO APB_scoreboard.sv(61) @ 655: uvm_test_top.env.scb [SCB_IN] Input: Addr=0x43, WRITE, Data=0xad364f16, PSTRB=0x3, transfer=1, transfer_done=0
# UVM_INFO APB_scoreboard.sv(123) @ 655: uvm_test_top.env.scb [SCB_OUT] Output: Addr=0x43, PSEL=1, PENABLE=1, PREADY=0, PWRITE=1
# UVM_INFO APB_scoreboard.sv(123) @ 665: uvm_test_top.env.scb [SCB_OUT] Output: Addr=0x43, PSEL=1, PENABLE=1, PREADY=1, PWRITE=1
# UVM_INFO APB_scoreboard.sv(61) @ 665: uvm_test_top.env.scb [SCB_IN] Input: Addr=0x43, WRITE, Data=0xad364f16, PSTRB=0x3, transfer=1, transfer_done=1
# UVM_INFO APB_scoreboard.sv(165) @ 665: uvm_test_top.env.scb [SCB] PASS - WRITE | Addr: 0x43 | Data: 0xad364f16 | PSTRB: 0x3
# UVM_INFO APB_scoreboard.sv(61) @ 675: uvm_test_top.env.scb [SCB_IN] Input: Addr=0x43, WRITE, Data=0xad364f16, PSTRB=0x3, transfer=0, transfer_done=0
# UVM_INFO APB_scoreboard.sv(123) @ 685: uvm_test_top.env.scb [SCB_OUT] Output: Addr=0x43, PSEL=0, PENABLE=0, PREADY=0, PWRITE=1
# UVM_INFO APB_scoreboard.sv(61) @ 685: uvm_test_top.env.scb [SCB_IN] Input: Addr=0x2d, WRITE, Data=0x4a20e344, PSTRB=0x2, transfer=1, transfer_done=0
# UVM_INFO APB_scoreboard.sv(61) @ 695: uvm_test_top.env.scb [SCB_IN] Input: Addr=0x2d, WRITE, Data=0x4a20e344, PSTRB=0x2, transfer=1, transfer_done=0
# UVM_INFO APB_scoreboard.sv(123) @ 695: uvm_test_top.env.scb [SCB_OUT] Output: Addr=0x2d, PSEL=1, PENABLE=0, PREADY=0, PWRITE=1
# ** Error: Protocol Error: PSEL didn't assert after Transfer at time 695
#    Time: 695 ns Started: 685 ns  Scope: top.duv.all_inst File: apb_protocol_checker.sv Line: 14 Expr: vif.PSEL
# UVM_INFO APB_scoreboard.sv(123) @ 705: uvm_test_top.env.scb [SCB_OUT] Output: Addr=0x2d, PSEL=1, PENABLE=1, PREADY=0, PWRITE=1
# UVM_INFO APB_scoreboard.sv(61) @ 705: uvm_test_top.env.scb [SCB_IN] Input: Addr=0x2d, WRITE, Data=0x4a20e344, PSTRB=0x2, transfer=1, transfer_done=0
# UVM_INFO APB_scoreboard.sv(61) @ 715: uvm_test_top.env.scb [SCB_IN] Input: Addr=0x2d, WRITE, Data=0x4a20e344, PSTRB=0x2, transfer=1, transfer_done=0
# UVM_INFO APB_scoreboard.sv(123) @ 715: uvm_test_top.env.scb [SCB_OUT] Output: Addr=0x2d, PSEL=1, PENABLE=1, PREADY=0, PWRITE=1
# UVM_INFO APB_scoreboard.sv(123) @ 725: uvm_test_top.env.scb [SCB_OUT] Output: Addr=0x2d, PSEL=1, PENABLE=1, PREADY=0, PWRITE=1
# UVM_INFO APB_scoreboard.sv(61) @ 725: uvm_test_top.env.scb [SCB_IN] Input: Addr=0x2d, WRITE, Data=0x4a20e344, PSTRB=0x2, transfer=1, transfer_done=0
# UVM_INFO APB_scoreboard.sv(61) @ 735: uvm_test_top.env.scb [SCB_IN] Input: Addr=0x2d, WRITE, Data=0x4a20e344, PSTRB=0x2, transfer=1, transfer_done=0
# UVM_INFO APB_scoreboard.sv(123) @ 735: uvm_test_top.env.scb [SCB_OUT] Output: Addr=0x2d, PSEL=1, PENABLE=1, PREADY=0, PWRITE=1
# UVM_INFO APB_scoreboard.sv(123) @ 745: uvm_test_top.env.scb [SCB_OUT] Output: Addr=0x2d, PSEL=1, PENABLE=1, PREADY=0, PWRITE=1
# UVM_INFO APB_scoreboard.sv(61) @ 745: uvm_test_top.env.scb [SCB_IN] Input: Addr=0x2d, WRITE, Data=0x4a20e344, PSTRB=0x2, transfer=1, transfer_done=0
# UVM_INFO APB_scoreboard.sv(61) @ 755: uvm_test_top.env.scb [SCB_IN] Input: Addr=0x2d, WRITE, Data=0x4a20e344, PSTRB=0x2, transfer=1, transfer_done=0
# UVM_INFO APB_scoreboard.sv(123) @ 755: uvm_test_top.env.scb [SCB_OUT] Output: Addr=0x2d, PSEL=1, PENABLE=1, PREADY=0, PWRITE=1
# UVM_INFO APB_scoreboard.sv(123) @ 765: uvm_test_top.env.scb [SCB_OUT] Output: Addr=0x2d, PSEL=1, PENABLE=1, PREADY=0, PWRITE=1
# UVM_INFO APB_scoreboard.sv(61) @ 765: uvm_test_top.env.scb [SCB_IN] Input: Addr=0x2d, WRITE, Data=0x4a20e344, PSTRB=0x2, transfer=1, transfer_done=0
# UVM_INFO APB_scoreboard.sv(61) @ 775: uvm_test_top.env.scb [SCB_IN] Input: Addr=0x2d, WRITE, Data=0x4a20e344, PSTRB=0x2, transfer=1, transfer_done=1
# UVM_INFO APB_scoreboard.sv(123) @ 775: uvm_test_top.env.scb [SCB_OUT] Output: Addr=0x2d, PSEL=1, PENABLE=1, PREADY=1, PWRITE=1
# UVM_INFO APB_scoreboard.sv(165) @ 775: uvm_test_top.env.scb [SCB] PASS - WRITE | Addr: 0x2d | Data: 0x4a20e344 | PSTRB: 0x2
# UVM_INFO APB_scoreboard.sv(61) @ 785: uvm_test_top.env.scb [SCB_IN] Input: Addr=0x2d, WRITE, Data=0x4a20e344, PSTRB=0x2, transfer=0, transfer_done=0
# UVM_INFO APB_scoreboard.sv(61) @ 795: uvm_test_top.env.scb [SCB_IN] Input: Addr=0x95, WRITE, Data=0xea06731f, PSTRB=0xb, transfer=1, transfer_done=0
# UVM_INFO APB_scoreboard.sv(123) @ 795: uvm_test_top.env.scb [SCB_OUT] Output: Addr=0x2d, PSEL=0, PENABLE=0, PREADY=0, PWRITE=1
# UVM_INFO APB_scoreboard.sv(123) @ 805: uvm_test_top.env.scb [SCB_OUT] Output: Addr=0x95, PSEL=1, PENABLE=0, PREADY=0, PWRITE=1
# UVM_INFO APB_scoreboard.sv(61) @ 805: uvm_test_top.env.scb [SCB_IN] Input: Addr=0x95, WRITE, Data=0xea06731f, PSTRB=0xb, transfer=1, transfer_done=0
# ** Error: Protocol Error: PSEL didn't assert after Transfer at time 805
#    Time: 805 ns Started: 795 ns  Scope: top.duv.all_inst File: apb_protocol_checker.sv Line: 14 Expr: vif.PSEL
# UVM_INFO APB_scoreboard.sv(61) @ 815: uvm_test_top.env.scb [SCB_IN] Input: Addr=0x95, WRITE, Data=0xea06731f, PSTRB=0xb, transfer=1, transfer_done=0
# UVM_INFO APB_scoreboard.sv(123) @ 815: uvm_test_top.env.scb [SCB_OUT] Output: Addr=0x95, PSEL=1, PENABLE=1, PREADY=0, PWRITE=1
# UVM_INFO APB_scoreboard.sv(123) @ 825: uvm_test_top.env.scb [SCB_OUT] Output: Addr=0x95, PSEL=1, PENABLE=1, PREADY=1, PWRITE=1
# UVM_INFO APB_scoreboard.sv(61) @ 825: uvm_test_top.env.scb [SCB_IN] Input: Addr=0x95, WRITE, Data=0xea06731f, PSTRB=0xb, transfer=1, transfer_done=1
# UVM_INFO APB_scoreboard.sv(165) @ 825: uvm_test_top.env.scb [SCB] PASS - WRITE | Addr: 0x95 | Data: 0xea06731f | PSTRB: 0xb
# UVM_INFO APB_scoreboard.sv(61) @ 835: uvm_test_top.env.scb [SCB_IN] Input: Addr=0x95, WRITE, Data=0xea06731f, PSTRB=0xb, transfer=0, transfer_done=0
# UVM_INFO APB_scoreboard.sv(123) @ 845: uvm_test_top.env.scb [SCB_OUT] Output: Addr=0x95, PSEL=0, PENABLE=0, PREADY=0, PWRITE=1
# UVM_INFO APB_scoreboard.sv(61) @ 845: uvm_test_top.env.scb [SCB_IN] Input: Addr=0xd2, WRITE, Data=0x6a95dd86, PSTRB=0x0, transfer=1, transfer_done=0
# UVM_INFO APB_scoreboard.sv(61) @ 855: uvm_test_top.env.scb [SCB_IN] Input: Addr=0xd2, WRITE, Data=0x6a95dd86, PSTRB=0x0, transfer=1, transfer_done=0
# UVM_INFO APB_scoreboard.sv(123) @ 855: uvm_test_top.env.scb [SCB_OUT] Output: Addr=0xd2, PSEL=1, PENABLE=0, PREADY=0, PWRITE=1
# ** Error: Protocol Error: PSEL didn't assert after Transfer at time 855
#    Time: 855 ns Started: 845 ns  Scope: top.duv.all_inst File: apb_protocol_checker.sv Line: 14 Expr: vif.PSEL
# UVM_INFO APB_scoreboard.sv(123) @ 865: uvm_test_top.env.scb [SCB_OUT] Output: Addr=0xd2, PSEL=1, PENABLE=1, PREADY=0, PWRITE=1
# UVM_INFO APB_scoreboard.sv(61) @ 865: uvm_test_top.env.scb [SCB_IN] Input: Addr=0xd2, WRITE, Data=0x6a95dd86, PSTRB=0x0, transfer=1, transfer_done=0
# UVM_INFO APB_scoreboard.sv(61) @ 875: uvm_test_top.env.scb [SCB_IN] Input: Addr=0xd2, WRITE, Data=0x6a95dd86, PSTRB=0x0, transfer=1, transfer_done=1
# UVM_INFO APB_scoreboard.sv(123) @ 875: uvm_test_top.env.scb [SCB_OUT] Output: Addr=0xd2, PSEL=1, PENABLE=1, PREADY=1, PWRITE=1
# UVM_INFO APB_scoreboard.sv(165) @ 875: uvm_test_top.env.scb [SCB] PASS - WRITE | Addr: 0xd2 | Data: 0x6a95dd86 | PSTRB: 0x0
# UVM_INFO APB_scoreboard.sv(61) @ 885: uvm_test_top.env.scb [SCB_IN] Input: Addr=0xd2, WRITE, Data=0x6a95dd86, PSTRB=0x0, transfer=0, transfer_done=0
# UVM_INFO APB_scoreboard.sv(61) @ 895: uvm_test_top.env.scb [SCB_IN] Input: Addr=0xba, WRITE, Data=0xc213ce72, PSTRB=0x5, transfer=1, transfer_done=0
# UVM_INFO APB_scoreboard.sv(123) @ 895: uvm_test_top.env.scb [SCB_OUT] Output: Addr=0xd2, PSEL=0, PENABLE=0, PREADY=0, PWRITE=1
# UVM_INFO APB_scoreboard.sv(123) @ 905: uvm_test_top.env.scb [SCB_OUT] Output: Addr=0xba, PSEL=1, PENABLE=0, PREADY=0, PWRITE=1
# UVM_INFO APB_scoreboard.sv(61) @ 905: uvm_test_top.env.scb [SCB_IN] Input: Addr=0xba, WRITE, Data=0xc213ce72, PSTRB=0x5, transfer=1, transfer_done=0
# ** Error: Protocol Error: PSEL didn't assert after Transfer at time 905
#    Time: 905 ns Started: 895 ns  Scope: top.duv.all_inst File: apb_protocol_checker.sv Line: 14 Expr: vif.PSEL
# UVM_INFO APB_scoreboard.sv(61) @ 915: uvm_test_top.env.scb [SCB_IN] Input: Addr=0xba, WRITE, Data=0xc213ce72, PSTRB=0x5, transfer=1, transfer_done=0
# UVM_INFO APB_scoreboard.sv(123) @ 915: uvm_test_top.env.scb [SCB_OUT] Output: Addr=0xba, PSEL=1, PENABLE=1, PREADY=0, PWRITE=1
# UVM_INFO APB_scoreboard.sv(123) @ 925: uvm_test_top.env.scb [SCB_OUT] Output: Addr=0xba, PSEL=1, PENABLE=1, PREADY=0, PWRITE=1
# UVM_INFO APB_scoreboard.sv(61) @ 925: uvm_test_top.env.scb [SCB_IN] Input: Addr=0xba, WRITE, Data=0xc213ce72, PSTRB=0x5, transfer=1, transfer_done=0
# UVM_INFO APB_scoreboard.sv(61) @ 935: uvm_test_top.env.scb [SCB_IN] Input: Addr=0xba, WRITE, Data=0xc213ce72, PSTRB=0x5, transfer=1, transfer_done=0
# UVM_INFO APB_scoreboard.sv(123) @ 935: uvm_test_top.env.scb [SCB_OUT] Output: Addr=0xba, PSEL=1, PENABLE=1, PREADY=0, PWRITE=1
# UVM_INFO APB_scoreboard.sv(123) @ 945: uvm_test_top.env.scb [SCB_OUT] Output: Addr=0xba, PSEL=1, PENABLE=1, PREADY=0, PWRITE=1
# UVM_INFO APB_scoreboard.sv(61) @ 945: uvm_test_top.env.scb [SCB_IN] Input: Addr=0xba, WRITE, Data=0xc213ce72, PSTRB=0x5, transfer=1, transfer_done=0
# UVM_INFO APB_scoreboard.sv(61) @ 955: uvm_test_top.env.scb [SCB_IN] Input: Addr=0xba, WRITE, Data=0xc213ce72, PSTRB=0x5, transfer=1, transfer_done=1
# UVM_INFO APB_scoreboard.sv(123) @ 955: uvm_test_top.env.scb [SCB_OUT] Output: Addr=0xba, PSEL=1, PENABLE=1, PREADY=1, PWRITE=1
# UVM_INFO APB_scoreboard.sv(165) @ 955: uvm_test_top.env.scb [SCB] PASS - WRITE | Addr: 0xba | Data: 0xc213ce72 | PSTRB: 0x5
# UVM_INFO APB_scoreboard.sv(61) @ 965: uvm_test_top.env.scb [SCB_IN] Input: Addr=0xba, WRITE, Data=0xc213ce72, PSTRB=0x5, transfer=0, transfer_done=0
# UVM_INFO APB_scoreboard.sv(61) @ 975: uvm_test_top.env.scb [SCB_IN] Input: Addr=0xbb, WRITE, Data=0xb3734e14, PSTRB=0x6, transfer=1, transfer_done=0
# UVM_INFO APB_scoreboard.sv(123) @ 975: uvm_test_top.env.scb [SCB_OUT] Output: Addr=0xba, PSEL=0, PENABLE=0, PREADY=0, PWRITE=1
# UVM_INFO APB_scoreboard.sv(123) @ 985: uvm_test_top.env.scb [SCB_OUT] Output: Addr=0xbb, PSEL=1, PENABLE=0, PREADY=0, PWRITE=1
# UVM_INFO APB_scoreboard.sv(61) @ 985: uvm_test_top.env.scb [SCB_IN] Input: Addr=0xbb, WRITE, Data=0xb3734e14, PSTRB=0x6, transfer=1, transfer_done=0
# ** Error: Protocol Error: PSEL didn't assert after Transfer at time 985
